{
  "ABIRoot": {
    "kind": "Root",
    "name": "TopLevel",
    "printedName": "TopLevel",
    "children": [
      {
        "kind": "Import",
        "name": "UIKit",
        "printedName": "UIKit",
        "declKind": "Import",
        "moduleName": "MealViewController",
        "declAttributes": [
          "RawDocComment"
        ]
      },
      {
        "kind": "Import",
        "name": "os.log",
        "printedName": "os.log",
        "declKind": "Import",
        "moduleName": "MealViewController"
      },
      {
        "kind": "Import",
        "name": "UIKit",
        "printedName": "UIKit",
        "declKind": "Import",
        "moduleName": "MealViewController",
        "declAttributes": [
          "RawDocComment"
        ]
      },
      {
        "kind": "Import",
        "name": "os.log",
        "printedName": "os.log",
        "declKind": "Import",
        "moduleName": "MealViewController"
      },
      {
        "kind": "Import",
        "name": "RatingControl",
        "printedName": "RatingControl",
        "declKind": "Import",
        "moduleName": "MealViewController"
      },
      {
        "kind": "TypeDecl",
        "name": "MealViewController",
        "printedName": "MealViewController",
        "children": [
          {
            "kind": "Function",
            "name": "viewDidLoad",
            "printedName": "viewDidLoad()",
            "children": [
              {
                "kind": "TypeNominal",
                "name": "Void",
                "printedName": "()"
              }
            ],
            "declKind": "Func",
            "usr": "c:@M@MealViewController@objc(cs)MealViewController(im)viewDidLoad",
            "mangledName": "$s18MealViewControllerAAC11viewDidLoadyyF",
            "moduleName": "MealViewController",
            "overriding": true,
            "objc_name": "viewDidLoad",
            "declAttributes": [
              "Dynamic",
              "ObjC",
              "Custom",
              "Override",
              "AccessControl"
            ],
            "funcSelfKind": "NonMutating"
          },
          {
            "kind": "Function",
            "name": "textFieldShouldReturn",
            "printedName": "textFieldShouldReturn(_:)",
            "children": [
              {
                "kind": "TypeNominal",
                "name": "Bool",
                "printedName": "Swift.Bool",
                "usr": "s:Sb"
              },
              {
                "kind": "TypeNominal",
                "name": "UITextField",
                "printedName": "UIKit.UITextField",
                "usr": "c:objc(cs)UITextField"
              }
            ],
            "declKind": "Func",
            "usr": "c:@M@MealViewController@objc(cs)MealViewController(im)textFieldShouldReturn:",
            "mangledName": "$s18MealViewControllerAAC21textFieldShouldReturnySbSo06UITextE0CF",
            "moduleName": "MealViewController",
            "objc_name": "textFieldShouldReturn:",
            "declAttributes": [
              "ObjC",
              "Custom",
              "AccessControl",
              "RawDocComment"
            ],
            "funcSelfKind": "NonMutating"
          },
          {
            "kind": "Function",
            "name": "textFieldDidBeginEditing",
            "printedName": "textFieldDidBeginEditing(_:)",
            "children": [
              {
                "kind": "TypeNominal",
                "name": "Void",
                "printedName": "()"
              },
              {
                "kind": "TypeNominal",
                "name": "UITextField",
                "printedName": "UIKit.UITextField",
                "usr": "c:objc(cs)UITextField"
              }
            ],
            "declKind": "Func",
            "usr": "c:@M@MealViewController@objc(cs)MealViewController(im)textFieldDidBeginEditing:",
            "mangledName": "$s18MealViewControllerAAC24textFieldDidBeginEditingyySo06UITextE0CF",
            "moduleName": "MealViewController",
            "objc_name": "textFieldDidBeginEditing:",
            "declAttributes": [
              "ObjC",
              "Custom",
              "AccessControl"
            ],
            "funcSelfKind": "NonMutating"
          },
          {
            "kind": "Function",
            "name": "textFieldDidEndEditing",
            "printedName": "textFieldDidEndEditing(_:)",
            "children": [
              {
                "kind": "TypeNominal",
                "name": "Void",
                "printedName": "()"
              },
              {
                "kind": "TypeNominal",
                "name": "UITextField",
                "printedName": "UIKit.UITextField",
                "usr": "c:objc(cs)UITextField"
              }
            ],
            "declKind": "Func",
            "usr": "c:@M@MealViewController@objc(cs)MealViewController(im)textFieldDidEndEditing:",
            "mangledName": "$s18MealViewControllerAAC22textFieldDidEndEditingyySo06UITextE0CF",
            "moduleName": "MealViewController",
            "objc_name": "textFieldDidEndEditing:",
            "declAttributes": [
              "ObjC",
              "Custom",
              "AccessControl"
            ],
            "funcSelfKind": "NonMutating"
          },
          {
            "kind": "Function",
            "name": "imagePickerControllerDidCancel",
            "printedName": "imagePickerControllerDidCancel(_:)",
            "children": [
              {
                "kind": "TypeNominal",
                "name": "Void",
                "printedName": "()"
              },
              {
                "kind": "TypeNominal",
                "name": "UIImagePickerController",
                "printedName": "UIKit.UIImagePickerController",
                "usr": "c:objc(cs)UIImagePickerController"
              }
            ],
            "declKind": "Func",
            "usr": "c:@M@MealViewController@objc(cs)MealViewController(im)imagePickerControllerDidCancel:",
            "mangledName": "$s18MealViewControllerAAC011imagePickerC9DidCancelyySo07UIImageeC0CF",
            "moduleName": "MealViewController",
            "objc_name": "imagePickerControllerDidCancel:",
            "declAttributes": [
              "ObjC",
              "Custom",
              "AccessControl",
              "RawDocComment"
            ],
            "funcSelfKind": "NonMutating"
          },
          {
            "kind": "Function",
            "name": "imagePickerController",
            "printedName": "imagePickerController(_:didFinishPickingMediaWithInfo:)",
            "children": [
              {
                "kind": "TypeNominal",
                "name": "Void",
                "printedName": "()"
              },
              {
                "kind": "TypeNominal",
                "name": "UIImagePickerController",
                "printedName": "UIKit.UIImagePickerController",
                "usr": "c:objc(cs)UIImagePickerController"
              },
              {
                "kind": "TypeNominal",
                "name": "Dictionary",
                "printedName": "[UIKit.UIImagePickerController.InfoKey : Any]",
                "children": [
                  {
                    "kind": "TypeNominal",
                    "name": "InfoKey",
                    "printedName": "UIKit.UIImagePickerController.InfoKey",
                    "usr": "c:@T@UIImagePickerControllerInfoKey"
                  },
                  {
                    "kind": "TypeNominal",
                    "name": "ProtocolComposition",
                    "printedName": "Any"
                  }
                ],
                "usr": "s:SD"
              }
            ],
            "declKind": "Func",
            "usr": "c:@M@MealViewController@objc(cs)MealViewController(im)imagePickerController:didFinishPickingMediaWithInfo:",
            "mangledName": "$s18MealViewControllerAAC011imagePickerC0_29didFinishPickingMediaWithInfoySo07UIImageeC0C_SDySo0lecK3KeyaypGtF",
            "moduleName": "MealViewController",
            "objc_name": "imagePickerController:didFinishPickingMediaWithInfo:",
            "declAttributes": [
              "ObjC",
              "Custom",
              "AccessControl"
            ],
            "funcSelfKind": "NonMutating"
          },
          {
            "kind": "Function",
            "name": "prepare",
            "printedName": "prepare(for:sender:)",
            "children": [
              {
                "kind": "TypeNominal",
                "name": "Void",
                "printedName": "()"
              },
              {
                "kind": "TypeNominal",
                "name": "UIStoryboardSegue",
                "printedName": "UIKit.UIStoryboardSegue",
                "usr": "c:objc(cs)UIStoryboardSegue"
              },
              {
                "kind": "TypeNominal",
                "name": "Optional",
                "printedName": "Any?",
                "children": [
                  {
                    "kind": "TypeNominal",
                    "name": "ProtocolComposition",
                    "printedName": "Any"
                  }
                ],
                "usr": "s:Sq"
              }
            ],
            "declKind": "Func",
            "usr": "c:@M@MealViewController@objc(cs)MealViewController(im)prepareForSegue:sender:",
            "mangledName": "$s18MealViewControllerAAC7prepare3for6senderySo17UIStoryboardSegueC_ypSgtF",
            "moduleName": "MealViewController",
            "overriding": true,
            "objc_name": "prepareForSegue:sender:",
            "declAttributes": [
              "Dynamic",
              "ObjC",
              "Custom",
              "Override",
              "AccessControl",
              "RawDocComment"
            ],
            "funcSelfKind": "NonMutating"
          },
          {
            "kind": "Constructor",
            "name": "init",
            "printedName": "init(nibName:bundle:)",
            "children": [
              {
                "kind": "TypeNominal",
                "name": "MealViewController",
                "printedName": "MealViewController.MealViewController",
                "usr": "c:@M@MealViewController@objc(cs)MealViewController"
              },
              {
                "kind": "TypeNominal",
                "name": "Optional",
                "printedName": "Swift.String?",
                "children": [
                  {
                    "kind": "TypeNominal",
                    "name": "String",
                    "printedName": "Swift.String",
                    "usr": "s:SS"
                  }
                ],
                "usr": "s:Sq"
              },
              {
                "kind": "TypeNominal",
                "name": "Optional",
                "printedName": "Foundation.Bundle?",
                "children": [
                  {
                    "kind": "TypeNominal",
                    "name": "Bundle",
                    "printedName": "Foundation.Bundle",
                    "usr": "c:objc(cs)NSBundle"
                  }
                ],
                "usr": "s:Sq"
              }
            ],
            "declKind": "Constructor",
            "usr": "c:@M@MealViewController@objc(cs)MealViewController(im)initWithNibName:bundle:",
            "mangledName": "$s18MealViewControllerAAC7nibName6bundleABSSSg_So8NSBundleCSgtcfc",
            "moduleName": "MealViewController",
            "overriding": true,
            "implicit": true,
            "objc_name": "initWithNibName:bundle:",
            "declAttributes": [
              "Dynamic",
              "ObjC",
              "Custom",
              "Override"
            ],
            "init_kind": "Designated"
          },
          {
            "kind": "Constructor",
            "name": "init",
            "printedName": "init(coder:)",
            "children": [
              {
                "kind": "TypeNominal",
                "name": "Optional",
                "printedName": "MealViewController.MealViewController?",
                "children": [
                  {
                    "kind": "TypeNominal",
                    "name": "MealViewController",
                    "printedName": "MealViewController.MealViewController",
                    "usr": "c:@M@MealViewController@objc(cs)MealViewController"
                  }
                ],
                "usr": "s:Sq"
              },
              {
                "kind": "TypeNominal",
                "name": "NSCoder",
                "printedName": "Foundation.NSCoder",
                "usr": "c:objc(cs)NSCoder"
              }
            ],
            "declKind": "Constructor",
            "usr": "c:@M@MealViewController@objc(cs)MealViewController(im)initWithCoder:",
            "mangledName": "$s18MealViewControllerAAC5coderABSgSo7NSCoderC_tcfc",
            "moduleName": "MealViewController",
            "overriding": true,
            "implicit": true,
            "objc_name": "initWithCoder:",
            "declAttributes": [
              "Dynamic",
              "ObjC",
              "Custom",
              "Required"
            ],
            "init_kind": "Designated"
          }
        ],
        "declKind": "Class",
        "usr": "c:@M@MealViewController@objc(cs)MealViewController",
        "mangledName": "$s18MealViewControllerAAC",
        "moduleName": "MealViewController",
        "declAttributes": [
          "Custom",
          "AccessControl",
          "ObjC"
        ],
        "superclassUsr": "c:objc(cs)UIViewController",
        "inheritsConvenienceInitializers": true,
        "superclassNames": [
          "UIKit.UIViewController",
          "UIKit.UIResponder",
          "ObjectiveC.NSObject"
        ],
        "conformances": [
          {
            "kind": "Conformance",
            "name": "Equatable",
            "printedName": "Equatable",
            "usr": "s:SQ",
            "mangledName": "$sSQ"
          },
          {
            "kind": "Conformance",
            "name": "Hashable",
            "printedName": "Hashable",
            "usr": "s:SH",
            "mangledName": "$sSH"
          },
          {
            "kind": "Conformance",
            "name": "CVarArg",
            "printedName": "CVarArg",
            "usr": "s:s7CVarArgP",
            "mangledName": "$ss7CVarArgP"
          },
          {
            "kind": "Conformance",
            "name": "_KeyValueCodingAndObservingPublishing",
            "printedName": "_KeyValueCodingAndObservingPublishing",
            "usr": "s:10Foundation37_KeyValueCodingAndObservingPublishingP",
            "mangledName": "$s10Foundation37_KeyValueCodingAndObservingPublishingP"
          },
          {
            "kind": "Conformance",
            "name": "_KeyValueCodingAndObserving",
            "printedName": "_KeyValueCodingAndObserving",
            "usr": "s:10Foundation27_KeyValueCodingAndObservingP",
            "mangledName": "$s10Foundation27_KeyValueCodingAndObservingP"
          },
          {
            "kind": "Conformance",
            "name": "CustomStringConvertible",
            "printedName": "CustomStringConvertible",
            "usr": "s:s23CustomStringConvertibleP",
            "mangledName": "$ss23CustomStringConvertibleP"
          },
          {
            "kind": "Conformance",
            "name": "CustomDebugStringConvertible",
            "printedName": "CustomDebugStringConvertible",
            "usr": "s:s28CustomDebugStringConvertibleP",
            "mangledName": "$ss28CustomDebugStringConvertibleP"
          }
        ]
      }
    ],
    "json_format_version": 8
  },
  "ConstValues": [
    {
      "filePath": "\/Users\/faruuq\/Documents\/Sandbox\/GitlabRepos\/MealViewController\/MealViewController\/Meal.swift",
      "kind": "StringLiteral",
      "offset": 471,
      "length": 7,
      "value": "\"meals\""
    },
    {
      "filePath": "\/Users\/faruuq\/Documents\/Sandbox\/GitlabRepos\/MealViewController\/MealViewController\/Meal.swift",
      "kind": "StringLiteral",
      "offset": 560,
      "length": 6,
      "value": "\"name\""
    },
    {
      "filePath": "\/Users\/faruuq\/Documents\/Sandbox\/GitlabRepos\/MealViewController\/MealViewController\/Meal.swift",
      "kind": "StringLiteral",
      "offset": 594,
      "length": 7,
      "value": "\"photo\""
    },
    {
      "filePath": "\/Users\/faruuq\/Documents\/Sandbox\/GitlabRepos\/MealViewController\/MealViewController\/Meal.swift",
      "kind": "StringLiteral",
      "offset": 630,
      "length": 8,
      "value": "\"rating\""
    },
    {
      "filePath": "\/Users\/faruuq\/Documents\/Sandbox\/GitlabRepos\/MealViewController\/MealViewController\/Meal.swift",
      "kind": "IntegerLiteral",
      "offset": 934,
      "length": 1,
      "value": "0"
    },
    {
      "filePath": "\/Users\/faruuq\/Documents\/Sandbox\/GitlabRepos\/MealViewController\/MealViewController\/Meal.swift",
      "kind": "IntegerLiteral",
      "offset": 951,
      "length": 1,
      "value": "5"
    },
    {
      "filePath": "\/Users\/faruuq\/Documents\/Sandbox\/GitlabRepos\/MealViewController\/MealViewController\/Meal.swift",
      "kind": "StringLiteral",
      "offset": 1647,
      "length": 46,
      "value": "\"Unable to decode the name for a Meal object.\""
    },
    {
      "filePath": "\/Users\/faruuq\/Documents\/Sandbox\/GitlabRepos\/MealViewController\/MealViewController\/Meal.swift",
      "kind": "StringLiteral",
      "offset": 133,
      "length": 4,
      "value": "\"MealViewController.Meal\""
    },
    {
      "filePath": "\/Users\/faruuq\/Documents\/Sandbox\/GitlabRepos\/MealViewController\/MealViewController\/MealViewController.swift",
      "kind": "BooleanLiteral",
      "offset": 1509,
      "length": 4,
      "value": "true"
    },
    {
      "filePath": "\/Users\/faruuq\/Documents\/Sandbox\/GitlabRepos\/MealViewController\/MealViewController\/MealViewController.swift",
      "kind": "BooleanLiteral",
      "offset": 1675,
      "length": 5,
      "value": "false"
    },
    {
      "filePath": "\/Users\/faruuq\/Documents\/Sandbox\/GitlabRepos\/MealViewController\/MealViewController\/MealViewController.swift",
      "kind": "BooleanLiteral",
      "offset": 2060,
      "length": 4,
      "value": "true"
    },
    {
      "filePath": "\/Users\/faruuq\/Documents\/Sandbox\/GitlabRepos\/MealViewController\/MealViewController\/MealViewController.swift",
      "kind": "StringLiteral",
      "offset": 2485,
      "length": 84,
      "value": "\"Expected a dictionary containing an image, but was provided the following: \""
    },
    {
      "filePath": "\/Users\/faruuq\/Documents\/Sandbox\/GitlabRepos\/MealViewController\/MealViewController\/MealViewController.swift",
      "kind": "StringLiteral",
      "offset": 2568,
      "length": 2,
      "value": "\"\""
    },
    {
      "filePath": "\/Users\/faruuq\/Documents\/Sandbox\/GitlabRepos\/MealViewController\/MealViewController\/MealViewController.swift",
      "kind": "BooleanLiteral",
      "offset": 2762,
      "length": 4,
      "value": "true"
    },
    {
      "filePath": "\/Users\/faruuq\/Documents\/Sandbox\/GitlabRepos\/MealViewController\/MealViewController\/MealViewController.swift",
      "kind": "BooleanLiteral",
      "offset": 3191,
      "length": 4,
      "value": "true"
    },
    {
      "filePath": "\/Users\/faruuq\/Documents\/Sandbox\/GitlabRepos\/MealViewController\/MealViewController\/MealViewController.swift",
      "kind": "BooleanLiteral",
      "offset": 3362,
      "length": 4,
      "value": "true"
    },
    {
      "filePath": "\/Users\/faruuq\/Documents\/Sandbox\/GitlabRepos\/MealViewController\/MealViewController\/MealViewController.swift",
      "kind": "StringLiteral",
      "offset": 3416,
      "length": 63,
      "value": "\"The MealViewController is not inside a navigation controller.\""
    },
    {
      "filePath": "\/Users\/faruuq\/Documents\/Sandbox\/GitlabRepos\/MealViewController\/MealViewController\/MealViewController.swift",
      "kind": "StringLiteral",
      "offset": 3913,
      "length": 45,
      "value": "\"The save button was not pressed, cancelling\""
    },
    {
      "filePath": "\/Users\/faruuq\/Documents\/Sandbox\/GitlabRepos\/MealViewController\/MealViewController\/MealViewController.swift",
      "kind": "StringLiteral",
      "offset": 4073,
      "length": 2,
      "value": "\"\""
    },
    {
      "filePath": "\/Users\/faruuq\/Documents\/Sandbox\/GitlabRepos\/MealViewController\/MealViewController\/MealViewController.swift",
      "kind": "BooleanLiteral",
      "offset": 4996,
      "length": 4,
      "value": "true"
    },
    {
      "filePath": "\/Users\/faruuq\/Documents\/Sandbox\/GitlabRepos\/MealViewController\/MealViewController\/MealViewController.swift",
      "kind": "StringLiteral",
      "offset": 5211,
      "length": 2,
      "value": "\"\""
    }
  ]
}